\relax 
\providecommand\hyper@newdestlabel[2]{}
\catcode \string ``=12
\providecommand\HyperFirstAtBeginDocument{\AtBeginDocument}
\HyperFirstAtBeginDocument{\ifx\hyper@anchor\@undefined
\global\let\oldcontentsline\contentsline
\gdef\contentsline#1#2#3#4{\oldcontentsline{#1}{#2}{#3}}
\global\let\oldnewlabel\newlabel
\gdef\newlabel#1#2{\newlabelxx{#1}#2}
\gdef\newlabelxx#1#2#3#4#5#6{\oldnewlabel{#1}{{#2}{#3}}}
\AtEndDocument{\ifx\hyper@anchor\@undefined
\let\contentsline\oldcontentsline
\let\newlabel\oldnewlabel
\fi}
\fi}
\global\let\hyper@last\relax 
\gdef\HyperFirstAtBeginDocument#1{#1}
\providecommand*\HyPL@Entry[1]{}
\bibstyle{huplain}
\@input{include/titlepage.aux}
\HyPL@Entry{0<</P()>>}
\HyPL@Entry{1<</P()>>}
\HyPL@Entry{2<</S/D>>}
\@input{content/introduction.aux}
\@input{content/3d_nyomtatasrol.aux}
\@input{content/nyomtatasrol.aux}
\@input{content/fanyomtato.aux}
\@input{content/hibakezeles.aux}
\bibdata{bib/mybib}
\bibcite{jlcpcb}{{1}{}{{}}{{}}}
\bibcite{3dmars}{{2}{}{{}}{{}}}
\bibcite{3d_printing_industry_2017}{{3}{}{{}}{{}}}
\bibcite{reprap_types}{{4}{}{{}}{{}}}
\bibcite{i3_vs_u2_3}{{5}{}{{}}{{}}}
\bibcite{all3dp_2018}{{6}{}{{}}{{}}}
\bibcite{eaton_2014}{{7}{}{{}}{{}}}
\bibcite{formlabs}{{8}{}{{}}{{}}}
\bibcite{TI_dmd}{{9}{}{{}}{{}}}
\bibcite{loff_2015}{{10}{}{{}}{{}}}
\bibcite{marlinfirmware}{{11}{}{{}}{{}}}
\bibcite{3dnatives_2017}{{12}{}{{}}{{}}}
\bibcite{checksum}{{13}{}{{}}{{}}}
\@writefile{toc}{\select@language{magyar} \contentsline {chapter}{Irodalomjegyz\'ek}{72}{chapter.7}}
\bibcite{3dprint.com}{{14}{}{{}}{{}}}
\bibcite{reprapprinting}{{15}{}{{}}{{}}}
\bibcite{printrun}{{16}{}{{}}{{}}}
\bibcite{forrviz}{{17}{}{{}}{{}}}
\bibcite{cax_tool}{{18}{}{{}}{{}}}
\bibcite{scara_pdf}{{19}{}{{}}{{}}}
\bibcite{bbc_news_2012}{{20}{}{{}}{{}}}
\bibcite{US7051654B2}{{21}{}{{}}{{}}}
\bibcite{e3donline}{{22}{}{{}}{{}}}
\bibcite{wohlers2014history}{{23}{}{{}}{{}}}
\@input{content/melleklet.aux}
\providecommand\NAT@force@numbers{}\NAT@force@numbers
