\relax 
\providecommand\hyper@newdestlabel[2]{}
\citation{wohlers2014history}
\@writefile{toc}{\select@language{magyar} \contentsline {chapter}{\numberline {2}A technológiáról}{3}{chapter.2}}
\@writefile{lof}{\select@language{magyar} \addvspace {10\p@ }}
\@writefile{lot}{\select@language{magyar} \addvspace {10\p@ }}
\@writefile{toc}{\select@language{magyar} \contentsline {section}{\numberline {2.1}Az additív technológia rövid története}{3}{section.2.1}}
\citation{US7051654B2}
\citation{bbc_news_2012}
\citation{loff_2015}
\citation{3d_printing_industry_2017}
\@writefile{toc}{\select@language{magyar} \contentsline {section}{\numberline {2.2}A mai 3D nyomtatási technológiák}{4}{section.2.2}}
\citation{3dprint.com}
\@writefile{lof}{\select@language{magyar} \contentsline {figure}{\numberline {2.1.}{\ignorespaces A 3D nyomtatás technológiai sokszínűsége \textit  {(forrás: \url  {http://www.3dhubs.com})}\relax }}{5}{figure.caption.2}}
\providecommand*\caption@xref[2]{\@setref\relax\@undefined{#1}}
\newlabel{fig:additive-manufacturing-infographic1}{{2.1}{5}{A 3D nyomtatás technológiai sokszínűsége \textit {(forrás: \url {http://www.3dhubs.com})}\relax }{figure.caption.2}{}}
\@writefile{toc}{\select@language{magyar} \contentsline {subsection}{\numberline {2.2.1}FDM eljárás}{5}{subsection.2.2.1}}
\@writefile{lof}{\select@language{magyar} \contentsline {figure}{\numberline {2.2.}{\ignorespaces Az FDM technológia elve \textit  {(forrás: \url  {http://www.prin3d.hu})}\relax }}{6}{figure.caption.3}}
\newlabel{fig:fdmhu}{{2.2}{6}{Az FDM technológia elve \textit {(forrás: \url {http://www.prin3d.hu})}\relax }{figure.caption.3}{}}
\@writefile{toc}{\select@language{magyar} \contentsline {subsection}{\numberline {2.2.2}SLA eljárás}{7}{subsection.2.2.2}}
\@writefile{lof}{\select@language{magyar} \contentsline {figure}{\numberline {2.3.}{\ignorespaces Az SLA technológia működési elve \textit  {(forrás: \url  {https://i.materialise.com})}\relax }}{7}{figure.caption.4}}
\newlabel{fig:sla}{{2.3}{7}{Az SLA technológia működési elve \textit {(forrás: \url {https://i.materialise.com})}\relax }{figure.caption.4}{}}
\citation{TI_dmd}
\@writefile{toc}{\select@language{magyar} \contentsline {subsection}{\numberline {2.2.3}DLP eljárás}{8}{subsection.2.2.3}}
\@writefile{lof}{\select@language{magyar} \contentsline {figure}{\numberline {2.4.}{\ignorespaces Az DLP technológia működési elve \textit  {(az eredeti kép forrása: \url  {https://www.think3d.in})}\relax }}{8}{figure.caption.5}}
\newlabel{fig:dlp}{{2.4}{8}{Az DLP technológia működési elve \textit {(az eredeti kép forrása: \url {https://www.think3d.in})}\relax }{figure.caption.5}{}}
\citation{formlabs}
\@writefile{toc}{\select@language{magyar} \contentsline {subsection}{\numberline {2.2.4}SLS eljárás}{9}{subsection.2.2.4}}
\@writefile{lof}{\select@language{magyar} \contentsline {figure}{\numberline {2.5.}{\ignorespaces Az SLS technológia működési elve\textit  {(az eredeti kép forrása: \url  {http://www.print3dd.com})}\relax }}{9}{figure.caption.6}}
\newlabel{fig:slshunl}{{2.5}{9}{Az SLS technológia működési elve\textit {(az eredeti kép forrása: \url {http://www.print3dd.com})}\relax }{figure.caption.6}{}}
\citation{eaton_2014}
\@writefile{toc}{\select@language{magyar} \contentsline {subsection}{\numberline {2.2.5}SLM eljárás}{10}{subsection.2.2.5}}
\@writefile{toc}{\select@language{magyar} \contentsline {subsection}{\numberline {2.2.6}EBM eljárás}{10}{subsection.2.2.6}}
\citation{3dnatives_2017}
\@writefile{lof}{\select@language{magyar} \contentsline {figure}{\numberline {2.6.}{\ignorespaces Az EMB technológia működési elve\textit  {(az eredeti kép forrása: \url  {http://www.arcam.com})}\relax }}{11}{figure.caption.7}}
\newlabel{fig:ebmhun}{{2.6}{11}{Az EMB technológia működési elve\textit {(az eredeti kép forrása: \url {http://www.arcam.com})}\relax }{figure.caption.7}{}}
\@setckpt{content/3d_nyomtatasrol}{
\setcounter{page}{12}
\setcounter{equation}{0}
\setcounter{enumi}{2}
\setcounter{enumii}{0}
\setcounter{enumiii}{0}
\setcounter{enumiv}{0}
\setcounter{footnote}{0}
\setcounter{mpfootnote}{0}
\setcounter{part}{0}
\setcounter{chapter}{2}
\setcounter{section}{2}
\setcounter{subsection}{6}
\setcounter{subsubsection}{0}
\setcounter{paragraph}{0}
\setcounter{subparagraph}{0}
\setcounter{figure}{6}
\setcounter{table}{0}
\setcounter{footnote@add}{0}
\setcounter{footnote@ch}{0}
\setcounter{parentequation}{0}
\setcounter{Item}{21}
\setcounter{Hfootnote}{0}
\setcounter{Hy@AnnotLevel}{0}
\setcounter{bookmark@seq@number}{10}
\setcounter{lstnumber}{1}
\setcounter{endNonectr}{6}
\setcounter{currNonectr}{0}
\setcounter{ContinuedFloat}{0}
\setcounter{NAT@ctr}{0}
\setcounter{currexamplectr}{0}
\setcounter{endexamplectr}{0}
\setcounter{example}{0}
\setcounter{currdefinitionctr}{0}
\setcounter{enddefinitionctr}{0}
\setcounter{definition}{0}
\setcounter{currtheoremctr}{0}
\setcounter{endtheoremctr}{0}
\setcounter{theorem}{0}
\setcounter{section@level}{2}
\setcounter{lstlisting}{0}
}
