\relax 
\providecommand\hyper@newdestlabel[2]{}
\@writefile{toc}{\select@language{magyar} \contentsline {chapter}{Kivonat}{i}{chapter*.2}}
\@writefile{toc}{\select@language{english} \contentsline {chapter}{Abstract}{ii}{chapter*.3}}
\@setckpt{content/abstract}{
\setcounter{page}{3}
\setcounter{equation}{0}
\setcounter{enumi}{0}
\setcounter{enumii}{0}
\setcounter{enumiii}{0}
\setcounter{enumiv}{0}
\setcounter{footnote}{0}
\setcounter{mpfootnote}{0}
\setcounter{part}{0}
\setcounter{chapter}{0}
\setcounter{section}{0}
\setcounter{subsection}{0}
\setcounter{subsubsection}{0}
\setcounter{paragraph}{0}
\setcounter{subparagraph}{0}
\setcounter{figure}{0}
\setcounter{table}{0}
\setcounter{footnote@add}{0}
\setcounter{footnote@ch}{0}
\setcounter{parentequation}{0}
\setcounter{Item}{0}
\setcounter{Hfootnote}{0}
\setcounter{Hy@AnnotLevel}{0}
\setcounter{bookmark@seq@number}{2}
\setcounter{lstnumber}{1}
\setcounter{endNonectr}{2}
\setcounter{currNonectr}{0}
\setcounter{ContinuedFloat}{0}
\setcounter{NAT@ctr}{0}
\setcounter{currexamplectr}{0}
\setcounter{endexamplectr}{0}
\setcounter{example}{0}
\setcounter{currdefinitionctr}{0}
\setcounter{enddefinitionctr}{0}
\setcounter{definition}{0}
\setcounter{currtheoremctr}{0}
\setcounter{endtheoremctr}{0}
\setcounter{theorem}{0}
\setcounter{section@level}{0}
\setcounter{lstlisting}{0}
\setcounter{romanPage}{3}
}
