\relax 
\providecommand\hyper@newdestlabel[2]{}
\@writefile{toc}{\select@language{magyar} \contentsline {chapter}{Köszönetnyilvánítás}{18}{chapter*.13}}
\@setckpt{content/acknowledgement}{
\setcounter{page}{19}
\setcounter{equation}{0}
\setcounter{enumi}{2}
\setcounter{enumii}{0}
\setcounter{enumiii}{0}
\setcounter{enumiv}{0}
\setcounter{footnote}{0}
\setcounter{mpfootnote}{0}
\setcounter{part}{0}
\setcounter{chapter}{3}
\setcounter{section}{2}
\setcounter{subsection}{0}
\setcounter{subsubsection}{0}
\setcounter{paragraph}{0}
\setcounter{subparagraph}{0}
\setcounter{figure}{5}
\setcounter{table}{0}
\setcounter{footnote@add}{0}
\setcounter{footnote@ch}{0}
\setcounter{parentequation}{0}
\setcounter{Item}{21}
\setcounter{Hfootnote}{0}
\setcounter{Hy@AnnotLevel}{0}
\setcounter{bookmark@seq@number}{14}
\setcounter{lstnumber}{1}
\setcounter{endNonectr}{6}
\setcounter{currNonectr}{0}
\setcounter{ContinuedFloat}{0}
\setcounter{NAT@ctr}{0}
\setcounter{currexamplectr}{0}
\setcounter{endexamplectr}{0}
\setcounter{example}{0}
\setcounter{currdefinitionctr}{0}
\setcounter{enddefinitionctr}{0}
\setcounter{definition}{0}
\setcounter{currtheoremctr}{0}
\setcounter{endtheoremctr}{0}
\setcounter{theorem}{0}
\setcounter{section@level}{1}
\setcounter{lstlisting}{0}
}
