\relax 
\providecommand\hyper@newdestlabel[2]{}
\@writefile{toc}{\select@language{magyar} \contentsline {chapter}{Függelék}{20}{appendix*.14}}
\@writefile{toc}{\select@language{magyar} \contentsline {section}{\numberline {F.1}A TeXstudio felülete}{20}{section.F.1}}
\@writefile{lof}{\select@language{magyar} \contentsline {figure}{\numberline {F.1.1.}{\ignorespaces A TeXstudio \LaTeX  -szerkesztő.\relax }}{20}{figure.caption.15}}
\@writefile{toc}{\select@language{magyar} \contentsline {section}{\numberline {F.2}Válasz az ,,Élet, a világmindenség, meg minden'' kérdésére}{21}{section.F.2}}
\@setckpt{content/appendices}{
\setcounter{page}{22}
\setcounter{equation}{2}
\setcounter{enumi}{2}
\setcounter{enumii}{0}
\setcounter{enumiii}{0}
\setcounter{enumiv}{0}
\setcounter{footnote}{0}
\setcounter{mpfootnote}{0}
\setcounter{part}{0}
\setcounter{chapter}{6}
\setcounter{section}{2}
\setcounter{subsection}{0}
\setcounter{subsubsection}{0}
\setcounter{paragraph}{0}
\setcounter{subparagraph}{0}
\setcounter{figure}{0}
\setcounter{table}{0}
\setcounter{footnote@add}{0}
\setcounter{footnote@ch}{0}
\setcounter{parentequation}{0}
\setcounter{Item}{21}
\setcounter{Hfootnote}{0}
\setcounter{Hy@AnnotLevel}{0}
\setcounter{bookmark@seq@number}{17}
\setcounter{lstnumber}{1}
\setcounter{endNonectr}{8}
\setcounter{currNonectr}{0}
\setcounter{ContinuedFloat}{0}
\setcounter{NAT@ctr}{18}
\setcounter{currexamplectr}{0}
\setcounter{endexamplectr}{0}
\setcounter{example}{0}
\setcounter{currdefinitionctr}{0}
\setcounter{enddefinitionctr}{0}
\setcounter{definition}{0}
\setcounter{currtheoremctr}{0}
\setcounter{endtheoremctr}{0}
\setcounter{theorem}{0}
\setcounter{section@level}{1}
\setcounter{lstlisting}{0}
}
