\relax 
\providecommand\hyper@newdestlabel[2]{}
\@writefile{toc}{\select@language{magyar} \contentsline {chapter}{\numberline {4}A megvalósított nyomtató felépítése és tulajdonságai}{28}{chapter.4}}
\@writefile{lof}{\select@language{magyar} \addvspace {10\p@ }}
\@writefile{lot}{\select@language{magyar} \addvspace {10\p@ }}
\@writefile{toc}{\select@language{magyar} \contentsline {section}{\numberline {4.1}A nyomtató mechanikai felépítése}{28}{section.4.1}}
\citation{e3donline}
\@writefile{lof}{\select@language{magyar} \contentsline {figure}{\numberline {4.1.}{\ignorespaces A tervezett nyomtató koncepciója renderképen\relax }}{29}{figure.caption.20}}
\newlabel{fig:renderkepek}{{4.1}{29}{A tervezett nyomtató koncepciója renderképen\relax }{figure.caption.20}{}}
\@writefile{toc}{\select@language{magyar} \contentsline {subsection}{\numberline {4.1.1}Főbb komponensek bemutatása}{29}{subsection.4.1.1}}
\@writefile{toc}{\select@language{magyar} \contentsline {subsection}{\numberline {4.1.2}Felépítés}{31}{subsection.4.1.2}}
\@writefile{lof}{\select@language{magyar} \contentsline {figure}{\numberline {4.2.}{\ignorespaces A berendezés alaplapja furatokkal (bal oldalon), a lábak felszerelése után (jobb oldalon)\relax }}{32}{figure.caption.21}}
\newlabel{fig:elso}{{4.2}{32}{A berendezés alaplapja furatokkal (bal oldalon), a lábak felszerelése után (jobb oldalon)\relax }{figure.caption.21}{}}
\@writefile{lof}{\select@language{magyar} \contentsline {figure}{\numberline {4.3.}{\ignorespaces A berendezés az ágyazat megvezetésének alapja (bal oldalon) és a Z tengelyekkel kapcsolatos komponensek felszerelése után (jobb oldalon)\relax }}{32}{figure.caption.22}}
\newlabel{fig:masodik}{{4.3}{32}{A berendezés az ágyazat megvezetésének alapja (bal oldalon) és a Z tengelyekkel kapcsolatos komponensek felszerelése után (jobb oldalon)\relax }{figure.caption.22}{}}
\@writefile{lof}{\select@language{magyar} \contentsline {figure}{\numberline {4.4.}{\ignorespaces A berendezés a Z irányú motorok, megvezetések (bal oldalon) és tálca mozgatásához szükséges elemek (jobb oldalon) felszerelése után\relax }}{33}{figure.caption.23}}
\newlabel{fig:haramdik}{{4.4}{33}{A berendezés a Z irányú motorok, megvezetések (bal oldalon) és tálca mozgatásához szükséges elemek (jobb oldalon) felszerelése után\relax }{figure.caption.23}{}}
\@writefile{lof}{\select@language{magyar} \contentsline {figure}{\numberline {4.5.}{\ignorespaces A berendezés a tálca (bal oldalon) és a nyomtatófej X és Z irányú mozgatását megvalósító mechanizmus (jobb oldalon) felszerelése után\relax }}{34}{figure.caption.24}}
\newlabel{fig:negyedik}{{4.5}{34}{A berendezés a tálca (bal oldalon) és a nyomtatófej X és Z irányú mozgatását megvalósító mechanizmus (jobb oldalon) felszerelése után\relax }{figure.caption.24}{}}
\@writefile{lof}{\select@language{magyar} \contentsline {figure}{\numberline {4.6.}{\ignorespaces A berendezés a nyomtatófej és extruder(bal oldalon) valamint a tárgyasztal és a tefloncsöves megvezetés (jobb oldalon) felszerelése után\relax }}{35}{figure.caption.25}}
\newlabel{fig:otodik}{{4.6}{35}{A berendezés a nyomtatófej és extruder(bal oldalon) valamint a tárgyasztal és a tefloncsöves megvezetés (jobb oldalon) felszerelése után\relax }{figure.caption.25}{}}
\@writefile{toc}{\select@language{magyar} \contentsline {subsection}{\numberline {4.1.3}Különleges megoldások}{35}{subsection.4.1.3}}
\@writefile{lof}{\select@language{magyar} \contentsline {figure}{\numberline {4.7.}{\ignorespaces A tervezett nyomtató tálca állítását lehetővé tevő mechanizmus renderképen\relax }}{35}{figure.caption.26}}
\newlabel{fig:talca_allito}{{4.7}{35}{A tervezett nyomtató tálca állítását lehetővé tevő mechanizmus renderképen\relax }{figure.caption.26}{}}
\citation{forrviz}
\@writefile{lof}{\select@language{magyar} \contentsline {figure}{\numberline {4.8.}{\ignorespaces A berendezés X tengelyén található holtjátékmentes hajtás rugós előfeszítés segítségével\relax }}{37}{figure.caption.27}}
\newlabel{fig:rugoshezag}{{4.8}{37}{A berendezés X tengelyén található holtjátékmentes hajtás rugós előfeszítés segítségével\relax }{figure.caption.27}{}}
\@writefile{lof}{\select@language{magyar} \contentsline {figure}{\numberline {4.9.}{\ignorespaces A berendezés X tengelyén használt menetes szár radiális ütése\relax }}{38}{figure.caption.28}}
\newlabel{fig:kihajlas}{{4.9}{38}{A berendezés X tengelyén használt menetes szár radiális ütése\relax }{figure.caption.28}{}}
\@writefile{lof}{\select@language{magyar} \contentsline {figure}{\numberline {4.10.}{\ignorespaces A berendezés X tengelyének hajtásátadása\relax }}{39}{figure.caption.29}}
\newlabel{fig:forgo}{{4.10}{39}{A berendezés X tengelyének hajtásátadása\relax }{figure.caption.29}{}}
\@writefile{toc}{\select@language{magyar} \contentsline {subsection}{\numberline {4.1.4}Szükséges megmunkálások folyamata, eszközei}{39}{subsection.4.1.4}}
\@writefile{toc}{\select@language{magyar} \contentsline {section}{\numberline {4.2}A nyomtató elektronikai felépítése}{40}{section.4.2}}
\@writefile{toc}{\select@language{magyar} \contentsline {subsection}{\numberline {4.2.1}Alkalmazott elemek}{40}{subsection.4.2.1}}
\@writefile{lot}{\select@language{magyar} \contentsline {table}{\numberline {4.1.}{\ignorespaces Az elektromos rendszer komponenseinek maximális áramfelvétele\relax }}{41}{table.caption.30}}
\newlabel{tab:tablazat}{{4.1}{41}{Az elektromos rendszer komponenseinek maximális áramfelvétele\relax }{table.caption.30}{}}
\newlabel{teljesitmeny}{{4.2}{41}{Alkalmazott elemek}{equation.4.2}{}}
\@writefile{lof}{\select@language{magyar} \contentsline {figure}{\numberline {4.11.}{\ignorespaces Impulzusszélesség-moduláció jelalakja több kitöltési tényező és 5V-os tápfeszültség esetén \textit  {(az eredeti kép forrása:\url  {http://www.cnv.hu})} \relax }}{42}{figure.caption.31}}
\newlabel{fig:pwm}{{4.11}{42}{Impulzusszélesség-moduláció jelalakja több kitöltési tényező és 5V-os tápfeszültség esetén \textit {(az eredeti kép forrása:\url {http://www.cnv.hu})} \relax }{figure.caption.31}{}}
\@writefile{lof}{\select@language{magyar} \contentsline {figure}{\numberline {4.12.}{\ignorespaces FET központú kapcsolóáramkör kapcsolási rajza\relax }}{43}{figure.caption.32}}
\newlabel{fig:fet}{{4.12}{43}{FET központú kapcsolóáramkör kapcsolási rajza\relax }{figure.caption.32}{}}
\newlabel{termell}{{4.3}{43}{Alkalmazott elemek}{equation.4.3}{}}
\@writefile{lof}{\select@language{magyar} \contentsline {figure}{\numberline {4.13.}{\ignorespaces Termisztoros hőmérő illesztőáramköre\relax }}{44}{figure.caption.33}}
\newlabel{fig:homeres}{{4.13}{44}{Termisztoros hőmérő illesztőáramköre\relax }{figure.caption.33}{}}
\@writefile{lof}{\select@language{magyar} \contentsline {figure}{\numberline {4.14.}{\ignorespaces Végálláskapcsoló illesztőáramköre\relax }}{45}{figure.caption.34}}
\newlabel{fig:ukapcs}{{4.14}{45}{Végálláskapcsoló illesztőáramköre\relax }{figure.caption.34}{}}
\@writefile{lof}{\select@language{magyar} \contentsline {figure}{\numberline {4.15.}{\ignorespaces A DRV8825 motorvezérlő modul \textit  {(az eredeti kép forrása:\url  {https://www.robotshop.com})} \relax }}{45}{figure.caption.35}}
\newlabel{fig:drv}{{4.15}{45}{A DRV8825 motorvezérlő modul \textit {(az eredeti kép forrása:\url {https://www.robotshop.com})} \relax }{figure.caption.35}{}}
\@writefile{lof}{\select@language{magyar} \contentsline {figure}{\numberline {4.16.}{\ignorespaces A munkadarabot hűtő radiális ventilátor elhelyezkedése renderképen\relax }}{46}{figure.caption.36}}
\newlabel{fig:vent}{{4.16}{46}{A munkadarabot hűtő radiális ventilátor elhelyezkedése renderképen\relax }{figure.caption.36}{}}
\@writefile{toc}{\select@language{magyar} \contentsline {subsection}{\numberline {4.2.2}Elektromos rendszer felépítése}{46}{subsection.4.2.2}}
\citation{cax_tool}
\@writefile{lof}{\select@language{magyar} \contentsline {figure}{\numberline {4.17.}{\ignorespaces A berendezés által alkalmazott elektronikai komponensek logikai struktúrája\relax }}{47}{figure.caption.37}}
\newlabel{fig:electriclogicpdf}{{4.17}{47}{A berendezés által alkalmazott elektronikai komponensek logikai struktúrája\relax }{figure.caption.37}{}}
\@writefile{toc}{\select@language{magyar} \contentsline {subsection}{\numberline {4.2.3}Az interfészpanel megtervezése és élesztése}{47}{subsection.4.2.3}}
\citation{jlcpcb}
\@writefile{lof}{\select@language{magyar} \contentsline {figure}{\numberline {4.18.}{\ignorespaces Az fejlesztőkártya és az interfészkártya kapcsolata\relax }}{48}{figure.caption.38}}
\newlabel{fig:kapcsolatok}{{4.18}{48}{Az fejlesztőkártya és az interfészkártya kapcsolata\relax }{figure.caption.38}{}}
\@writefile{lof}{\select@language{magyar} \contentsline {figure}{\numberline {4.19.}{\ignorespaces A rendszer tápellátásának logikai vázlata\relax }}{49}{figure.caption.39}}
\newlabel{fig:powerdist}{{4.19}{49}{A rendszer tápellátásának logikai vázlata\relax }{figure.caption.39}{}}
\@writefile{lof}{\select@language{magyar} \contentsline {figure}{\numberline {4.20.}{\ignorespaces Az interfészpanel renderképe\relax }}{51}{figure.caption.40}}
\newlabel{fig:pcb_latvany}{{4.20}{51}{Az interfészpanel renderképe\relax }{figure.caption.40}{}}
\@writefile{lof}{\select@language{magyar} \contentsline {figure}{\numberline {4.21.}{\ignorespaces A beültetett interfészpanel\relax }}{51}{figure.caption.41}}
\newlabel{fig:beultetett}{{4.21}{51}{A beültetett interfészpanel\relax }{figure.caption.41}{}}
\@writefile{toc}{\select@language{magyar} \contentsline {section}{\numberline {4.3}A nyomtató szoftveres háttere}{51}{section.4.3}}
\citation{printrun}
\citation{marlinfirmware}
\@writefile{toc}{\select@language{magyar} \contentsline {section}{\numberline {4.4}A nyomtatóval elérhető minőség, problémák}{52}{section.4.4}}
\citation{reprapprinting}
\@writefile{lof}{\select@language{magyar} \contentsline {figure}{\numberline {4.22.}{\ignorespaces A rétegvastagság növelésének hatása ugyanazon modellen (az alkalmazott rétegvastagságok balról jobbra: 0.16mm, 0.2mm, 0.25mm)\relax }}{53}{figure.caption.42}}
\newlabel{fig:rocket}{{4.22}{53}{A rétegvastagság növelésének hatása ugyanazon modellen (az alkalmazott rétegvastagságok balról jobbra: 0.16mm, 0.2mm, 0.25mm)\relax }{figure.caption.42}{}}
\@setckpt{content/fanyomtato}{
\setcounter{page}{55}
\setcounter{equation}{3}
\setcounter{enumi}{4}
\setcounter{enumii}{0}
\setcounter{enumiii}{0}
\setcounter{enumiv}{0}
\setcounter{footnote}{0}
\setcounter{mpfootnote}{0}
\setcounter{part}{0}
\setcounter{chapter}{4}
\setcounter{section}{4}
\setcounter{subsection}{0}
\setcounter{subsubsection}{0}
\setcounter{paragraph}{0}
\setcounter{subparagraph}{0}
\setcounter{figure}{22}
\setcounter{table}{1}
\setcounter{footnote@add}{0}
\setcounter{footnote@ch}{0}
\setcounter{parentequation}{0}
\setcounter{Item}{25}
\setcounter{Hfootnote}{0}
\setcounter{Hy@AnnotLevel}{0}
\setcounter{bookmark@seq@number}{27}
\setcounter{lstnumber}{1}
\setcounter{endNonectr}{17}
\setcounter{currNonectr}{0}
\setcounter{ContinuedFloat}{0}
\setcounter{NAT@ctr}{0}
\setcounter{currexamplectr}{0}
\setcounter{endexamplectr}{0}
\setcounter{example}{0}
\setcounter{currdefinitionctr}{0}
\setcounter{enddefinitionctr}{0}
\setcounter{definition}{0}
\setcounter{currtheoremctr}{0}
\setcounter{endtheoremctr}{0}
\setcounter{theorem}{0}
\setcounter{section@level}{1}
\setcounter{lstlisting}{0}
}
