\relax 
\providecommand\hyper@newdestlabel[2]{}
\@writefile{toc}{\select@language{magyar} \contentsline {chapter}{\numberline {5}A furat méretproblémájának megoldási kísérlete}{55}{chapter.5}}
\@writefile{lof}{\select@language{magyar} \addvspace {10\p@ }}
\@writefile{lot}{\select@language{magyar} \addvspace {10\p@ }}
\@writefile{toc}{\select@language{magyar} \contentsline {section}{\numberline {5.1}A megoldás elve}{55}{section.5.1}}
\@writefile{toc}{\select@language{magyar} \contentsline {section}{\numberline {5.2}Az új vezérlés hardveres bemutatása}{56}{section.5.2}}
\@writefile{lof}{\select@language{magyar} \contentsline {figure}{\numberline {5.1.}{\ignorespaces Az STM32F103C8T6 típusú mikrovezérlőt tartalmazó fejlesztőkártya \textit  {(az eredeti kép forrása: \url  {https://www.cnx-software.com})} \relax }}{56}{figure.caption.43}}
\newlabel{fig:stm32}{{5.1}{56}{Az STM32F103C8T6 típusú mikrovezérlőt tartalmazó fejlesztőkártya \textit {(az eredeti kép forrása: \url {https://www.cnx-software.com})} \relax }{figure.caption.43}{}}
\@writefile{toc}{\select@language{magyar} \contentsline {section}{\numberline {5.3}Az új vezérlés szoftveres bemutatása}{57}{section.5.3}}
\@writefile{toc}{\select@language{magyar} \contentsline {subsection}{\numberline {5.3.1}A PC oldali szoftver}{57}{subsection.5.3.1}}
\@writefile{lof}{\select@language{magyar} \contentsline {figure}{\numberline {5.2.}{\ignorespaces A PC oldali program többszálú felépítése\relax }}{57}{figure.caption.44}}
\newlabel{fig:multithread}{{5.2}{57}{A PC oldali program többszálú felépítése\relax }{figure.caption.44}{}}
\@writefile{lof}{\select@language{magyar} \contentsline {figure}{\numberline {5.3.}{\ignorespaces A PC oldali program felhasználói felülete\relax }}{58}{figure.caption.45}}
\newlabel{fig:gui}{{5.3}{58}{A PC oldali program felhasználói felülete\relax }{figure.caption.45}{}}
\@writefile{lof}{\select@language{magyar} \contentsline {figure}{\numberline {5.4.}{\ignorespaces A G-kódot tartalmazó szöveges állomány feldolgozásának folyamatábrája\relax }}{59}{figure.caption.46}}
\newlabel{fig:parse}{{5.4}{59}{A G-kódot tartalmazó szöveges állomány feldolgozásának folyamatábrája\relax }{figure.caption.46}{}}
\citation{checksum}
\@writefile{lof}{\select@language{magyar} \contentsline {figure}{\numberline {5.5.}{\ignorespaces A nagy görbületek felismerésének és az új extrudálási érték meghatározásának folyamatábrája\relax }}{60}{figure.caption.47}}
\newlabel{fig:extrudalas}{{5.5}{60}{A nagy görbületek felismerésének és az új extrudálási érték meghatározásának folyamatábrája\relax }{figure.caption.47}{}}
\@writefile{lof}{\select@language{magyar} \contentsline {figure}{\numberline {5.6.}{\ignorespaces Az utasítás átadására használt adatstruktúra felépítése \relax }}{61}{figure.caption.48}}
\newlabel{fig:struktura}{{5.6}{61}{Az utasítás átadására használt adatstruktúra felépítése \relax }{figure.caption.48}{}}
\@writefile{toc}{\select@language{magyar} \contentsline {subsection}{\numberline {5.3.2}A mikrovezérlő oldali szoftver}{61}{subsection.5.3.2}}
\@writefile{lof}{\select@language{magyar} \contentsline {figure}{\numberline {5.7.}{\ignorespaces A mikrovezérlőn futó főprogram folyamatábrája\relax }}{62}{figure.caption.49}}
\newlabel{fig:stm_main}{{5.7}{62}{A mikrovezérlőn futó főprogram folyamatábrája\relax }{figure.caption.49}{}}
\@writefile{lof}{\select@language{magyar} \contentsline {figure}{\numberline {5.8.}{\ignorespaces A motorvezérlők léptetés vonalainak ideális jelalakja, ha az X tengelyen 10 az Y tengelyen 5 lépés végrehajtása a feladat\relax }}{64}{figure.caption.50}}
\newlabel{fig:utasitas_demo}{{5.8}{64}{A motorvezérlők léptetés vonalainak ideális jelalakja, ha az X tengelyen 10 az Y tengelyen 5 lépés végrehajtása a feladat\relax }{figure.caption.50}{}}
\@writefile{lof}{\select@language{magyar} \contentsline {figure}{\numberline {5.9.}{\ignorespaces A léptetéshez szükséges számítás folyamata\relax }}{64}{figure.caption.51}}
\newlabel{fig:szamitas}{{5.9}{64}{A léptetéshez szükséges számítás folyamata\relax }{figure.caption.51}{}}
\@writefile{lof}{\select@language{magyar} \contentsline {figure}{\numberline {5.10.}{\ignorespaces A motorvezérlők léptetés vonalainak jelalakja ha az X tengelyen 10 az Y tengelyen 7 lépés végrehajtása a feladat és M=2\relax }}{65}{figure.caption.52}}
\newlabel{fig:10-7}{{5.10}{65}{A motorvezérlők léptetés vonalainak jelalakja ha az X tengelyen 10 az Y tengelyen 7 lépés végrehajtása a feladat és M=2\relax }{figure.caption.52}{}}
\@writefile{lof}{\select@language{magyar} \contentsline {figure}{\numberline {5.11.}{\ignorespaces A motorvezérlők léptetés vonalainak jelalakja ha az X tengelyen 10 az Y tengelyen 7 lépés végrehajtása a feladat és M=3\relax }}{66}{figure.caption.53}}
\newlabel{fig:10_7_30}{{5.11}{66}{A motorvezérlők léptetés vonalainak jelalakja ha az X tengelyen 10 az Y tengelyen 7 lépés végrehajtása a feladat és M=3\relax }{figure.caption.53}{}}
\newlabel{kritikus}{{5.1}{66}{A mikrovezérlő oldali szoftver}{equation.5.1}{}}
\@writefile{lof}{\select@language{magyar} \contentsline {figure}{\numberline {5.12.}{\ignorespaces Az időbeli felbontás ($\mathbf  {M}$) és a kritikus lépésszám($\mathbf  {L_{krit}}$) összefüggése \relax }}{66}{figure.caption.54}}
\newlabel{fig:krit_plot}{{5.12}{66}{Az időbeli felbontás ($\mathbf {M}$) és a kritikus lépésszám($\mathbf {L_{krit}}$) összefüggése \relax }{figure.caption.54}{}}
\@writefile{toc}{\select@language{magyar} \contentsline {section}{\numberline {5.4}A kísérlet eredménye}{67}{section.5.4}}
\@writefile{lof}{\select@language{magyar} \contentsline {figure}{\numberline {5.13.}{\ignorespaces A módszer tesztelés során alkalmazott modell (a jelölt méretek mm-ben értendők)\relax }}{67}{figure.caption.55}}
\newlabel{fig:probadarab_meret}{{5.13}{67}{A módszer tesztelés során alkalmazott modell (a jelölt méretek mm-ben értendők)\relax }{figure.caption.55}{}}
\@writefile{lof}{\select@language{magyar} \contentsline {figure}{\numberline {5.14.}{\ignorespaces A kísérlet során kinyomtatott mintadarabok, és azok méretei\relax }}{69}{figure.caption.56}}
\newlabel{fig:nyomtatas}{{5.14}{69}{A kísérlet során kinyomtatott mintadarabok, és azok méretei\relax }{figure.caption.56}{}}
\@writefile{toc}{\select@language{magyar} \contentsline {chapter}{\numberline {6}Fejlesztési lehetőségek}{70}{chapter.6}}
\@writefile{lof}{\select@language{magyar} \addvspace {10\p@ }}
\@writefile{lot}{\select@language{magyar} \addvspace {10\p@ }}
\@writefile{toc}{\select@language{magyar} \contentsline {chapter}{\numberline {7}Összefoglalás}{71}{chapter.7}}
\@writefile{lof}{\select@language{magyar} \addvspace {10\p@ }}
\@writefile{lot}{\select@language{magyar} \addvspace {10\p@ }}
\@setckpt{content/hibakezeles}{
\setcounter{page}{72}
\setcounter{equation}{0}
\setcounter{enumi}{4}
\setcounter{enumii}{0}
\setcounter{enumiii}{0}
\setcounter{enumiv}{0}
\setcounter{footnote}{0}
\setcounter{mpfootnote}{0}
\setcounter{part}{0}
\setcounter{chapter}{7}
\setcounter{section}{0}
\setcounter{subsection}{0}
\setcounter{subsubsection}{0}
\setcounter{paragraph}{0}
\setcounter{subparagraph}{0}
\setcounter{figure}{0}
\setcounter{table}{0}
\setcounter{footnote@add}{0}
\setcounter{footnote@ch}{0}
\setcounter{parentequation}{0}
\setcounter{Item}{25}
\setcounter{Hfootnote}{0}
\setcounter{Hy@AnnotLevel}{0}
\setcounter{bookmark@seq@number}{36}
\setcounter{lstnumber}{1}
\setcounter{endNonectr}{29}
\setcounter{currNonectr}{0}
\setcounter{ContinuedFloat}{0}
\setcounter{NAT@ctr}{0}
\setcounter{currexamplectr}{0}
\setcounter{endexamplectr}{0}
\setcounter{example}{0}
\setcounter{currdefinitionctr}{0}
\setcounter{enddefinitionctr}{0}
\setcounter{definition}{0}
\setcounter{currtheoremctr}{0}
\setcounter{endtheoremctr}{0}
\setcounter{theorem}{0}
\setcounter{section@level}{1}
\setcounter{lstlisting}{0}
}
