\relax 
\providecommand\hyper@newdestlabel[2]{}
\@writefile{toc}{\select@language{magyar} \contentsline {chapter}{\numberline {2}\LaTeX  -eszközök}{3}{chapter.2}}
\@writefile{lof}{\select@language{magyar} \addvspace {10\p@ }}
\@writefile{lot}{\select@language{magyar} \addvspace {10\p@ }}
\newlabel{sec:LatexTools}{{2}{3}{\contentsname \@mkboth {\MakeUppercase \contentsname }{\MakeUppercase \contentsname }}{chapter.2}{}}
\@writefile{toc}{\select@language{magyar} \contentsline {section}{\numberline {2.1}A szerkesztéshez használatos eszközök}{3}{section.2.1}}
\@writefile{lof}{\select@language{magyar} \contentsline {figure}{\numberline {2.1.}{\ignorespaces A TeXstudio \LaTeX  -szerkesztő.\relax }}{3}{figure.caption.2}}
\providecommand*\caption@xref[2]{\@setref\relax\@undefined{#1}}
\newlabel{fig:TeXstudio}{{2.1}{3}{A TeXstudio \LaTeX -szerkesztő.\relax }{figure.caption.2}{}}
\@writefile{toc}{\select@language{magyar} \contentsline {section}{\numberline {2.2}A dokumentum lefordítása Windows alatt}{4}{section.2.2}}
\@writefile{toc}{\select@language{magyar} \contentsline {section}{\numberline {2.3}Eszközök Linuxhoz}{5}{section.2.3}}
\@setckpt{content/latex-tools}{
\setcounter{page}{6}
\setcounter{equation}{0}
\setcounter{enumi}{0}
\setcounter{enumii}{0}
\setcounter{enumiii}{0}
\setcounter{enumiv}{0}
\setcounter{footnote}{2}
\setcounter{mpfootnote}{0}
\setcounter{part}{0}
\setcounter{chapter}{2}
\setcounter{section}{3}
\setcounter{subsection}{0}
\setcounter{subsubsection}{0}
\setcounter{paragraph}{0}
\setcounter{subparagraph}{0}
\setcounter{figure}{1}
\setcounter{table}{0}
\setcounter{footnote@add}{0}
\setcounter{footnote@ch}{0}
\setcounter{parentequation}{0}
\setcounter{Item}{0}
\setcounter{Hfootnote}{2}
\setcounter{Hy@AnnotLevel}{0}
\setcounter{bookmark@seq@number}{5}
\setcounter{lstnumber}{2}
\setcounter{endNonectr}{1}
\setcounter{currNonectr}{0}
\setcounter{ContinuedFloat}{0}
\setcounter{NAT@ctr}{0}
\setcounter{currexamplectr}{0}
\setcounter{endexamplectr}{0}
\setcounter{example}{0}
\setcounter{currdefinitionctr}{0}
\setcounter{enddefinitionctr}{0}
\setcounter{definition}{0}
\setcounter{currtheoremctr}{0}
\setcounter{endtheoremctr}{0}
\setcounter{theorem}{0}
\setcounter{section@level}{1}
\setcounter{lstlisting}{0}
}
