\relax 
\providecommand\hyper@newdestlabel[2]{}
\@writefile{lof}{\select@language{magyar} \contentsline {figure}{\numberline {1.}{\ignorespaces A nyomtatóberendezés kísérleti vezérlőáramkörrel\relax }}{74}{figure.caption.59}}
\newlabel{fig:mg7205}{{1}{74}{A nyomtatóberendezés kísérleti vezérlőáramkörrel\relax }{figure.caption.59}{}}
\@writefile{lof}{\select@language{magyar} \contentsline {figure}{\numberline {2.}{\ignorespaces A nyomtatóberendezés központi elemeinek részletfotója\relax }}{75}{figure.caption.60}}
\newlabel{fig:kozponti}{{2}{75}{A nyomtatóberendezés központi elemeinek részletfotója\relax }{figure.caption.60}{}}
\@writefile{lof}{\select@language{magyar} \contentsline {figure}{\numberline {3.}{\ignorespaces A nyomtatóberendezés X tengelye részletfotón\relax }}{75}{figure.caption.61}}
\newlabel{fig:iksz}{{3}{75}{A nyomtatóberendezés X tengelye részletfotón\relax }{figure.caption.61}{}}
\@setckpt{content/melleklet}{
\setcounter{page}{76}
\setcounter{equation}{0}
\setcounter{enumi}{4}
\setcounter{enumii}{0}
\setcounter{enumiii}{0}
\setcounter{enumiv}{0}
\setcounter{footnote}{0}
\setcounter{mpfootnote}{0}
\setcounter{part}{0}
\setcounter{chapter}{7}
\setcounter{section}{0}
\setcounter{subsection}{0}
\setcounter{subsubsection}{0}
\setcounter{paragraph}{0}
\setcounter{subparagraph}{0}
\setcounter{figure}{3}
\setcounter{table}{0}
\setcounter{footnote@add}{0}
\setcounter{footnote@ch}{0}
\setcounter{parentequation}{0}
\setcounter{Item}{25}
\setcounter{Hfootnote}{0}
\setcounter{Hy@AnnotLevel}{0}
\setcounter{bookmark@seq@number}{37}
\setcounter{lstnumber}{1}
\setcounter{endNonectr}{29}
\setcounter{currNonectr}{0}
\setcounter{ContinuedFloat}{0}
\setcounter{NAT@ctr}{23}
\setcounter{currexamplectr}{0}
\setcounter{endexamplectr}{0}
\setcounter{example}{0}
\setcounter{currdefinitionctr}{0}
\setcounter{enddefinitionctr}{0}
\setcounter{definition}{0}
\setcounter{currtheoremctr}{0}
\setcounter{endtheoremctr}{0}
\setcounter{theorem}{0}
\setcounter{section@level}{1}
\setcounter{lstlisting}{0}
}
