\relax 
\providecommand\hyper@newdestlabel[2]{}
\@writefile{toc}{\select@language{magyar} \contentsline {chapter}{\numberline {3}Az otthoni 3D nyomtatásról}{12}{chapter.3}}
\@writefile{lof}{\select@language{magyar} \addvspace {10\p@ }}
\@writefile{lot}{\select@language{magyar} \addvspace {10\p@ }}
\@writefile{toc}{\select@language{magyar} \contentsline {section}{\numberline {3.1}A RepRap projekt}{12}{section.3.1}}
\@writefile{toc}{\select@language{magyar} \contentsline {section}{\numberline {3.2}A 3D nyomtatás folyamata}{12}{section.3.2}}
\@writefile{lof}{\select@language{magyar} \contentsline {figure}{\numberline {3.1.}{\ignorespaces A 3D nyomtatás folyamata\relax }}{13}{figure.caption.8}}
\newlabel{fig:printprocess}{{3.1}{13}{A 3D nyomtatás folyamata\relax }{figure.caption.8}{}}
\@writefile{lof}{\select@language{magyar} \contentsline {figure}{\numberline {3.2.}{\ignorespaces A támaszanyag eltávolítása \textit  {(az eredeti kép forrása: \url  {https://www.3dhubs.com})}\relax }}{14}{figure.caption.9}}
\newlabel{fig:fdmpostprocess}{{3.2}{14}{A támaszanyag eltávolítása \textit {(az eredeti kép forrása: \url {https://www.3dhubs.com})}\relax }{figure.caption.9}{}}
\@writefile{toc}{\select@language{magyar} \contentsline {section}{\numberline {3.3}Asztali FDM nyomtatók elemei}{15}{section.3.3}}
\@writefile{lof}{\select@language{magyar} \contentsline {figure}{\numberline {3.3.}{\ignorespaces FDM nyomtató elemei \textit  {(az eredeti kép forrása: \url  {http://my3dconcepts.com})} \relax }}{15}{figure.caption.10}}
\newlabel{fig:fdmpartsoriginal}{{3.3}{15}{FDM nyomtató elemei \textit {(az eredeti kép forrása: \url {http://my3dconcepts.com})} \relax }{figure.caption.10}{}}
\@writefile{lof}{\select@language{magyar} \contentsline {figure}{\numberline {3.4.}{\ignorespaces Léptetőmotor felépítése \textit  {(az eredeti kép forrása: \url  {https://www.islproducts.com})} \relax }}{16}{figure.caption.11}}
\newlabel{fig:stepperhun}{{3.4}{16}{Léptetőmotor felépítése \textit {(az eredeti kép forrása: \url {https://www.islproducts.com})} \relax }{figure.caption.11}{}}
\@writefile{lof}{\select@language{magyar} \contentsline {figure}{\numberline {3.5.}{\ignorespaces A bipoláris és unipoláris motorok tekercselése \textit  {(az eredeti kép forrása: \url  {https://learn.adafruit.com})} \relax }}{17}{figure.caption.12}}
\newlabel{fig:stepperwindinghun}{{3.5}{17}{A bipoláris és unipoláris motorok tekercselése \textit {(az eredeti kép forrása: \url {https://learn.adafruit.com})} \relax }{figure.caption.12}{}}
\citation{all3dp_2018}
\@writefile{lof}{\select@language{magyar} \contentsline {figure}{\numberline {3.6.}{\ignorespaces Extrudálási típusok \textit  {(az eredeti kép forrása: \url  {https://all3dp.com})} \relax }}{19}{figure.caption.13}}
\newlabel{fig:extruderhun}{{3.6}{19}{Extrudálási típusok \textit {(az eredeti kép forrása: \url {https://all3dp.com})} \relax }{figure.caption.13}{}}
\@writefile{lof}{\select@language{magyar} \contentsline {figure}{\numberline {3.7.}{\ignorespaces Általános, bovdenes FDM nyomtatófej felépítése \textit  {(az eredeti kép forrása: \url  {https://filament2print.com})}\relax }}{20}{figure.caption.14}}
\newlabel{fig:hotendhun}{{3.7}{20}{Általános, bovdenes FDM nyomtatófej felépítése \textit {(az eredeti kép forrása: \url {https://filament2print.com})}\relax }{figure.caption.14}{}}
\@writefile{lof}{\select@language{magyar} \contentsline {figure}{\numberline {3.8.}{\ignorespaces Lineáris golyóscsapágy felépítése \textit  {(az eredeti kép forrása: \url  {https://www.skf.com})} \relax }}{21}{figure.caption.15}}
\newlabel{fig:linearbearinghun}{{3.8}{21}{Lineáris golyóscsapágy felépítése \textit {(az eredeti kép forrása: \url {https://www.skf.com})} \relax }{figure.caption.15}{}}
\@writefile{toc}{\select@language{magyar} \contentsline {section}{\numberline {3.4}Asztali FDM nyomtatók típusai}{22}{section.3.4}}
\citation{reprap_types}
\citation{i3_vs_u2_3}
\citation{reprap_types}
\@writefile{lof}{\select@language{magyar} \contentsline {figure}{\numberline {3.9.}{\ignorespaces Prusa i3 (XZ) és Ultimaker 2+ (XY) nyomtatók \textit  {(az eredeti képek forrása: \url  {https://www.voxelfactory.com} és \url  {https://www.3dhubs.com} )}\relax }}{24}{figure.caption.16}}
\newlabel{fig:printers}{{3.9}{24}{Prusa i3 (XZ) és Ultimaker 2+ (XY) nyomtatók \textit {(az eredeti képek forrása: \url {https://www.voxelfactory.com} és \url {https://www.3dhubs.com} )}\relax }{figure.caption.16}{}}
\@writefile{lof}{\select@language{magyar} \contentsline {figure}{\numberline {3.10.}{\ignorespaces A delta renszerű nyomtató működése és a fejet tartó gömbcsuklós mechanizmus \textit  {(az eredeti képek forrása: \url  {https://www.3dnatives.com} és \url  {http://www.atom3dp.com} )}\relax }}{24}{figure.caption.17}}
\newlabel{fig:delta}{{3.10}{24}{A delta renszerű nyomtató működése és a fejet tartó gömbcsuklós mechanizmus \textit {(az eredeti képek forrása: \url {https://www.3dnatives.com} és \url {http://www.atom3dp.com} )}\relax }{figure.caption.17}{}}
\@writefile{lof}{\select@language{magyar} \contentsline {figure}{\numberline {3.11.}{\ignorespaces Polar 3D nyomtató \textit  {(az eredeti kép forrása: \url  {https://about.polar3d.com})}\relax }}{25}{figure.caption.18}}
\newlabel{fig:polar}{{3.11}{25}{Polar 3D nyomtató \textit {(az eredeti kép forrása: \url {https://about.polar3d.com})}\relax }{figure.caption.18}{}}
\citation{scara_pdf}
\@writefile{lof}{\select@language{magyar} \contentsline {figure}{\numberline {3.12.}{\ignorespaces SCARA robotkar \textit  {(az eredeti kép forrása: \url  {https://www.researchgate.net})}\relax }}{26}{figure.caption.19}}
\newlabel{fig:scara1}{{3.12}{26}{SCARA robotkar \textit {(az eredeti kép forrása: \url {https://www.researchgate.net})}\relax }{figure.caption.19}{}}
\citation{3dmars}
\@setckpt{content/nyomtatasrol}{
\setcounter{page}{28}
\setcounter{equation}{0}
\setcounter{enumi}{2}
\setcounter{enumii}{0}
\setcounter{enumiii}{0}
\setcounter{enumiv}{0}
\setcounter{footnote}{0}
\setcounter{mpfootnote}{0}
\setcounter{part}{0}
\setcounter{chapter}{3}
\setcounter{section}{4}
\setcounter{subsection}{0}
\setcounter{subsubsection}{0}
\setcounter{paragraph}{0}
\setcounter{subparagraph}{0}
\setcounter{figure}{12}
\setcounter{table}{0}
\setcounter{footnote@add}{0}
\setcounter{footnote@ch}{0}
\setcounter{parentequation}{0}
\setcounter{Item}{21}
\setcounter{Hfootnote}{0}
\setcounter{Hy@AnnotLevel}{0}
\setcounter{bookmark@seq@number}{15}
\setcounter{lstnumber}{1}
\setcounter{endNonectr}{9}
\setcounter{currNonectr}{0}
\setcounter{ContinuedFloat}{0}
\setcounter{NAT@ctr}{0}
\setcounter{currexamplectr}{0}
\setcounter{endexamplectr}{0}
\setcounter{example}{0}
\setcounter{currdefinitionctr}{0}
\setcounter{enddefinitionctr}{0}
\setcounter{definition}{0}
\setcounter{currtheoremctr}{0}
\setcounter{endtheoremctr}{0}
\setcounter{theorem}{0}
\setcounter{section@level}{1}
\setcounter{lstlisting}{0}
}
