\relax 
\providecommand\hyper@newdestlabel[2]{}
\@writefile{toc}{\select@language{magyar} \contentsline {chapter}{\numberline {4}A \LaTeX  -sablon használata}{18}{chapter.4}}
\@writefile{lof}{\select@language{magyar} \addvspace {10\p@ }}
\@writefile{lot}{\select@language{magyar} \addvspace {10\p@ }}
\@writefile{toc}{\select@language{magyar} \contentsline {section}{\numberline {4.1}Címkék és hivatkozások}{18}{section.4.1}}
\@writefile{toc}{\select@language{magyar} \contentsline {section}{\numberline {4.2}Ábrák és táblázatok}{19}{section.4.2}}
\@writefile{lof}{\select@language{magyar} \contentsline {figure}{\numberline {4.1.}{\ignorespaces Több képfájl beillesztése esetén térközöket is érdemes használni.\relax }}{20}{figure.caption.13}}
\newlabel{fig:HVSpaces}{{4.1}{20}{Több képfájl beillesztése esetén térközöket is érdemes használni.\relax }{figure.caption.13}{}}
\@writefile{toc}{\select@language{magyar} \contentsline {section}{\numberline {4.3}Felsorolások és listák}{20}{section.4.3}}
\@writefile{lot}{\select@language{magyar} \contentsline {table}{\numberline {4.1.}{\ignorespaces Az órajel-generátor chip órajel-kimenetei.\relax }}{21}{table.caption.14}}
\newlabel{tab:TabularExample}{{4.1}{21}{Az órajel-generátor chip órajel-kimenetei.\relax }{table.caption.14}{}}
\newlabel{lst:Example}{{4.1}{21}{A fenti számozott felsorolás \LaTeX -forráskódja}{lstlisting.4.1}{}}
\@writefile{lol}{\select@language{magyar} \contentsline {lstlisting}{\numberline {4.1}A fenti számozott felsorolás \LaTeX  -forráskódja}{21}{lstlisting.4.1}}
\@writefile{toc}{\select@language{magyar} \contentsline {section}{\numberline {4.4}Képletek}{21}{section.4.4}}
\@writefile{toc}{\select@language{magyar} \contentsline {section}{\numberline {4.5}Irodalmi hivatkozások}{23}{section.4.5}}
\newlabel{sec:HowtoReference}{{4.5}{23}{Irodalmi hivatkozások}{section.4.5}{}}
\newlabel{lst:Bibtex}{{4.2}{23}{Példa szöveges irodalomjegyzék-adatbázisra Bib\TeX {} használata esetén}{lstlisting.4.2}{}}
\@writefile{lol}{\select@language{magyar} \contentsline {lstlisting}{\numberline {4.2}Példa szöveges irodalomjegyzék-adatbázisra BibT\kern -.1667em\lower .5ex\hbox {E}\kern -.125emX\spacefactor \@m {}{} használata esetén.}{23}{lstlisting.4.2}}
\citation{Wettl04}
\citation{Candy86}
\citation{Lee87}
\citation{KissPhD}
\citation{Schreier00}
\citation{Mkrtychev:1997}
\citation{DipPortal}
\@writefile{toc}{\select@language{magyar} \contentsline {section}{\numberline {4.6}A dolgozat szerkezete és a forrásfájlok}{26}{section.4.6}}
\@writefile{toc}{\select@language{magyar} \contentsline {section}{\numberline {4.7}Alapadatok megadása}{28}{section.4.7}}
\@writefile{toc}{\select@language{magyar} \contentsline {section}{\numberline {4.8}Új fejezet írása}{28}{section.4.8}}
\@writefile{toc}{\select@language{magyar} \contentsline {section}{\numberline {4.9}Definíciók, tételek, példák}{28}{section.4.9}}
\@writefile{thm}{\select@language{magyar} \contentsline {definition}{{\definicio }{1}{Fluxuskondenzátor térerőssége}}{28}{definition.1}}
\@writefile{thm}{\select@language{magyar} \contentsline {example}{{\pelda }{1}{}}{28}{example.1}}
\@writefile{thm}{\select@language{magyar} \contentsline {theorem}{{\tetel }{1}{Kovács tétele}}{28}{theorem.1}}
\@setckpt{content/template-usage}{
\setcounter{page}{29}
\setcounter{equation}{4}
\setcounter{enumi}{11}
\setcounter{enumii}{0}
\setcounter{enumiii}{0}
\setcounter{enumiv}{0}
\setcounter{footnote}{9}
\setcounter{mpfootnote}{0}
\setcounter{part}{0}
\setcounter{chapter}{4}
\setcounter{section}{9}
\setcounter{subsection}{0}
\setcounter{subsubsection}{0}
\setcounter{paragraph}{0}
\setcounter{subparagraph}{0}
\setcounter{figure}{1}
\setcounter{table}{1}
\setcounter{footnote@add}{0}
\setcounter{footnote@ch}{0}
\setcounter{parentequation}{0}
\setcounter{Item}{35}
\setcounter{Hfootnote}{9}
\setcounter{Hy@AnnotLevel}{0}
\setcounter{bookmark@seq@number}{23}
\setcounter{lstnumber}{14}
\setcounter{endNonectr}{17}
\setcounter{currNonectr}{0}
\setcounter{ContinuedFloat}{0}
\setcounter{NAT@ctr}{0}
\setcounter{currexamplectr}{1}
\setcounter{endexamplectr}{0}
\setcounter{example}{1}
\setcounter{currdefinitionctr}{1}
\setcounter{enddefinitionctr}{0}
\setcounter{definition}{1}
\setcounter{currtheoremctr}{1}
\setcounter{endtheoremctr}{0}
\setcounter{theorem}{1}
\setcounter{section@level}{1}
\setcounter{lstlisting}{2}
}
