\relax 
\providecommand\hyper@newdestlabel[2]{}
\citation{Jeney}
\@writefile{toc}{\select@language{magyar} \contentsline {chapter}{\numberline {3}A dolgozat formai kivitele}{12}{chapter.3}}
\@writefile{lof}{\select@language{magyar} \addvspace {10\p@ }}
\@writefile{lot}{\select@language{magyar} \addvspace {10\p@ }}
\@writefile{toc}{\select@language{magyar} \contentsline {section}{\numberline {3.1}A dolgozat kimérete}{12}{section.3.1}}
\@writefile{toc}{\select@language{magyar} \contentsline {section}{\numberline {3.2}A dolgozat nyelve}{12}{section.3.2}}
\@writefile{toc}{\select@language{magyar} \contentsline {section}{\numberline {3.3}A dokumentum nyomdatechnikai kivitele}{12}{section.3.3}}
\@setckpt{content/thesis-format}{
\setcounter{page}{14}
\setcounter{equation}{0}
\setcounter{enumi}{2}
\setcounter{enumii}{0}
\setcounter{enumiii}{0}
\setcounter{enumiv}{0}
\setcounter{footnote}{0}
\setcounter{mpfootnote}{0}
\setcounter{part}{0}
\setcounter{chapter}{3}
\setcounter{section}{3}
\setcounter{subsection}{0}
\setcounter{subsubsection}{0}
\setcounter{paragraph}{0}
\setcounter{subparagraph}{0}
\setcounter{figure}{0}
\setcounter{table}{0}
\setcounter{footnote@add}{0}
\setcounter{footnote@ch}{0}
\setcounter{parentequation}{0}
\setcounter{Item}{21}
\setcounter{Hfootnote}{0}
\setcounter{Hy@AnnotLevel}{0}
\setcounter{bookmark@seq@number}{14}
\setcounter{lstnumber}{1}
\setcounter{endNonectr}{6}
\setcounter{currNonectr}{0}
\setcounter{ContinuedFloat}{0}
\setcounter{NAT@ctr}{0}
\setcounter{currexamplectr}{0}
\setcounter{endexamplectr}{0}
\setcounter{example}{0}
\setcounter{currdefinitionctr}{0}
\setcounter{enddefinitionctr}{0}
\setcounter{definition}{0}
\setcounter{currtheoremctr}{0}
\setcounter{endtheoremctr}{0}
\setcounter{theorem}{0}
\setcounter{section@level}{1}
\setcounter{lstlisting}{0}
}
